Banana,Banana_0_0,"0.0,1.0,0.7,1.6,0.0,0.9,0.8,1.6,0.0,1.0,0.7,1.6,1.6,0.0,0.0,1.6","-0.00738136755104,-0.00226399044464,0.0252434352664","10.0,1000.0,10.0,1.0,5000.0",0.0951262366,0.0372571521,-0.0048823135,-1.38777878078E-017,-4.85722573274E-017,-4.38017677684E-017,0.0664283263,-0.001103023,0.0352489504,0.332437484,-0.1077557825,-0.0744348377,0.0672139608,-0.0003980485,0.0331304702,0.3552111482,-0.1308275108,-0.0565449844,0
Banana,Banana_0_0,"0.0,1.0,0.7,1.6,0.0,0.9,0.8,1.6,0.0,1.0,0.7,1.6,1.6,0.0,0.0,1.6","-0.00738136755104,-0.00226399044464,0.0252434352664","10.0,1000.0,10.0,1.0,5000.0",0.0951262366,0.0372571521,-0.0048823135,-1.38777878078E-017,-4.85722573274E-017,-4.38017677684E-017,0.0664283263,-0.001103023,0.0352489504,0.332437484,-0.1077557825,-0.0744348377,0.0672139608,-0.0003980485,0.0331304702,0.3552111482,-0.1308275108,-0.0565449844,1
Banana,Banana_0_0,"0.0,1.0,0.7,1.6,0.0,0.9,0.8,1.6,0.0,1.0,0.7,1.6,1.6,0.0,0.0,1.6","-0.00738136755104,-0.00226399044464,0.0252434352664","10.0,1000.0,10.0,1.0,5000.0",0.0951262366,0.0372571521,-0.0048823135,-1.38777878078E-017,-4.85722573274E-017,-4.38017677684E-017,0.0664283263,-0.001103023,0.0352489504,0.332437484,-0.1077557825,-0.0744348377,0.0672139608,-0.0003980485,0.0331304702,0.3552111482,-0.1308275108,-0.0565449844,2
Banana,Banana_0_0,"0.0,1.0,0.7,1.6,0.0,0.9,0.8,1.6,0.0,1.0,0.7,1.6,1.6,0.0,0.0,1.6","-0.00738136755104,-0.00226399044464,0.0252434352664","10.0,1000.0,10.0,1.0,5000.0",0.0951262366,0.0372571521,-0.0048823135,-1.38777878078E-017,-4.85722573274E-017,-4.38017677684E-017,0.0664283263,-0.001103023,0.0352489504,0.332437484,-0.1077557825,-0.0744348377,0.0672139608,-0.0003980485,0.0331304702,0.3552111482,-0.1308275108,-0.0565449844,3
Banana,Banana_0_0,"0.0,1.0,0.7,1.6,0.0,0.9,0.8,1.6,0.0,1.0,0.7,1.6,1.6,0.0,0.0,1.6","-0.00738136755104,-0.00226399044464,0.0252434352664","10.0,1000.0,10.0,1.0,5000.0",0.0951262366,0.0372571521,-0.0048823135,-1.38777878078E-017,-4.85722573274E-017,-4.38017677684E-017,0.0664283263,-0.001103023,0.0352489504,0.332437484,-0.1077557825,-0.0744348377,0.0672139608,-0.0003980485,0.0331304702,0.3552111482,-0.1308275108,-0.0565449844,4
Banana,Banana_1_1,"0.0,1.0,0.7,1.6,0.0,0.9,0.8,1.6,0.0,1.0,0.7,1.6,1.6,0.0,0.0,1.6","-0.00738136755104,-0.00226399044464,0.0252434352664","10.0,1000.0,10.0,1.0,5000.0",0.0951262366,0.0372571521,-0.0048823135,-1.38777878078E-017,-4.85722573274E-017,-4.38017677684E-017,0.0633304509,0.0336928663,0.042091504,0.0470789579,-0.0200854677,0.0178695486,0.067624323,0.033181624,0.0323263124,0.0753684716,-0.1656798694,0.0255958268,0
Banana,Banana_1_1,"0.0,1.0,0.7,1.6,0.0,0.9,0.8,1.6,0.0,1.0,0.7,1.6,1.6,0.0,0.0,1.6","-0.00738136755104,-0.00226399044464,0.0252434352664","10.0,1000.0,10.0,1.0,5000.0",0.0951262366,0.0372571521,-0.0048823135,-1.38777878078E-017,-4.85722573274E-017,-4.38017677684E-017,0.0633304509,0.0336928663,0.042091504,0.0470789579,-0.0200854677,0.0178695486,0.067624323,0.033181624,0.0323263124,0.0753684716,-0.1656798694,0.0255958268,1
Banana,Banana_1_1,"0.0,1.0,0.7,1.6,0.0,0.9,0.8,1.6,0.0,1.0,0.7,1.6,1.6,0.0,0.0,1.6","-0.00738136755104,-0.00226399044464,0.0252434352664","10.0,1000.0,10.0,1.0,5000.0",0.0951262366,0.0372571521,-0.0048823135,-1.38777878078E-017,-4.85722573274E-017,-4.38017677684E-017,0.0633304509,0.0336928663,0.042091504,0.0470789579,-0.0200854677,0.0178695486,0.067624323,0.033181624,0.0323263124,0.0753684716,-0.1656798694,0.0255958268,2
Banana,Banana_1_1,"0.0,1.0,0.7,1.6,0.0,0.9,0.8,1.6,0.0,1.0,0.7,1.6,1.6,0.0,0.0,1.6","-0.00738136755104,-0.00226399044464,0.0252434352664","10.0,1000.0,10.0,1.0,5000.0",0.0951262366,0.0372571521,-0.0048823135,-1.38777878078E-017,-4.85722573274E-017,-4.38017677684E-017,0.0633304509,0.0336928663,0.042091504,0.0470789579,-0.0200854677,0.0178695486,0.067624323,0.033181624,0.0323263124,0.0753684716,-0.1656798694,0.0255958268,3
Banana,Banana_1_1,"0.0,1.0,0.7,1.6,0.0,0.9,0.8,1.6,0.0,1.0,0.7,1.6,1.6,0.0,0.0,1.6","-0.00738136755104,-0.00226399044464,0.0252434352664","10.0,1000.0,10.0,1.0,5000.0",0.0951262366,0.0372571521,-0.0048823135,-1.38777878078E-017,-4.85722573274E-017,-4.38017677684E-017,0.0633304509,0.0336928663,0.042091504,0.0470789579,-0.0200854677,0.0178695486,0.067624323,0.033181624,0.0323263124,0.0753684716,-0.1656798694,0.0255958268,4
Jello-2f,Jello-2f_0_2,"0.0,0.8,0.7,1.6,0.0,0.1,0.0,0.0,0.0,0.0,0.0,0.0,1.5,0.0,0.0,1.6","0.0131404699715,-0.00883789305466,0.053806803537","10.0,1000.0,10.0,1.0,5000.0",0.0707851936,0.0525901097,0.0215263936,-5.55111512313E-017,-3.46944695195E-017,-6.50521303491E-018,0.033224154,0.0742241384,0.0368254235,0.0017072408,-0.1774621658,0.3729153704,0.0332893643,0.0744411347,0.036750133,9.21662956648E-005,-0.1763239177,0.3731168148,0
Jello-2f,Jello-2f_0_2,"0.0,0.8,0.7,1.6,0.0,0.1,0.0,0.0,0.0,0.0,0.0,0.0,1.5,0.0,0.0,1.6","0.0131404699715,-0.00883789305466,0.053806803537","10.0,1000.0,10.0,1.0,5000.0",0.0707851936,0.0525901097,0.0215263936,-5.55111512313E-017,-3.46944695195E-017,-6.50521303491E-018,0.033224154,0.0742241384,0.0368254235,0.0017072408,-0.1774621658,0.3729153704,0.0332893643,0.0744411347,0.036750133,9.21662956648E-005,-0.1763239177,0.3731168148,1
Jello-2f,Jello-2f_0_2,"0.0,0.8,0.7,1.6,0.0,0.1,0.0,0.0,0.0,0.0,0.0,0.0,1.5,0.0,0.0,1.6","0.0131404699715,-0.00883789305466,0.053806803537","10.0,1000.0,10.0,1.0,5000.0",0.0707851936,0.0525901097,0.0215263936,-5.55111512313E-017,-3.46944695195E-017,-6.50521303491E-018,0.033224154,0.0742241384,0.0368254235,0.0017072408,-0.1774621658,0.3729153704,0.0332893643,0.0744411347,0.036750133,9.21662956648E-005,-0.1763239177,0.3731168148,2
Jello-2f,Jello-2f_0_2,"0.0,0.8,0.7,1.6,0.0,0.1,0.0,0.0,0.0,0.0,0.0,0.0,1.5,0.0,0.0,1.6","0.0131404699715,-0.00883789305466,0.053806803537","10.0,1000.0,10.0,1.0,5000.0",0.0707851936,0.0525901097,0.0215263936,-5.55111512313E-017,-3.46944695195E-017,-6.50521303491E-018,0.033224154,0.0742241384,0.0368254235,0.0017072408,-0.1774621658,0.3729153704,0.0332893643,0.0744411347,0.036750133,9.21662956648E-005,-0.1763239177,0.3731168148,3
Jello-2f,Jello-2f_0_2,"0.0,0.8,0.7,1.6,0.0,0.1,0.0,0.0,0.0,0.0,0.0,0.0,1.5,0.0,0.0,1.6","0.0131404699715,-0.00883789305466,0.053806803537","10.0,1000.0,10.0,1.0,5000.0",0.0707851936,0.0525901097,0.0215263936,-5.55111512313E-017,-3.46944695195E-017,-6.50521303491E-018,0.033224154,0.0742241384,0.0368254235,0.0017072408,-0.1774621658,0.3729153704,0.0332893643,0.0744411347,0.036750133,9.21662956648E-005,-0.1763239177,0.3731168148,4
Jello-2f,Jello-2f_1_3,"0.0,0.8,0.7,1.6,0.0,0.1,0.0,0.0,0.0,0.0,0.0,0.0,1.5,0.0,0.0,1.6","0.0131404699715,-0.00883789305466,0.053806803537","10.0,1000.0,10.0,1.0,5000.0",0.0707851936,0.0525901097,0.0215263936,-5.55111512313E-017,-3.46944695195E-017,-6.50521303491E-018,0.0393561079,0.0582295587,0.0263128835,-0.142471669,-0.3524193781,-0.0606630607,0.0392345083,0.0585141721,0.0258236112,-0.1317726822,-0.3465712272,-0.0387829252,0
Jello-2f,Jello-2f_1_3,"0.0,0.8,0.7,1.6,0.0,0.1,0.0,0.0,0.0,0.0,0.0,0.0,1.5,0.0,0.0,1.6","0.0131404699715,-0.00883789305466,0.053806803537","10.0,1000.0,10.0,1.0,5000.0",0.0707851936,0.0525901097,0.0215263936,-5.55111512313E-017,-3.46944695195E-017,-6.50521303491E-018,0.0393561079,0.0582295587,0.0263128835,-0.142471669,-0.3524193781,-0.0606630607,0.0392345083,0.0585141721,0.0258236112,-0.1317726822,-0.3465712272,-0.0387829252,1
Jello-2f,Jello-2f_1_3,"0.0,0.8,0.7,1.6,0.0,0.1,0.0,0.0,0.0,0.0,0.0,0.0,1.5,0.0,0.0,1.6","0.0131404699715,-0.00883789305466,0.053806803537","10.0,1000.0,10.0,1.0,5000.0",0.0707851936,0.0525901097,0.0215263936,-5.55111512313E-017,-3.46944695195E-017,-6.50521303491E-018,0.0393561079,0.0582295587,0.0263128835,-0.142471669,-0.3524193781,-0.0606630607,0.0392345083,0.0585141721,0.0258236112,-0.1317726822,-0.3465712272,-0.0387829252,2
Jello-2f,Jello-2f_1_3,"0.0,0.8,0.7,1.6,0.0,0.1,0.0,0.0,0.0,0.0,0.0,0.0,1.5,0.0,0.0,1.6","0.0131404699715,-0.00883789305466,0.053806803537","10.0,1000.0,10.0,1.0,5000.0",0.0707851936,0.0525901097,0.0215263936,-5.55111512313E-017,-3.46944695195E-017,-6.50521303491E-018,0.0393561079,0.0582295587,0.0263128835,-0.142471669,-0.3524193781,-0.0606630607,0.0392345083,0.0585141721,0.0258236112,-0.1317726822,-0.3465712272,-0.0387829252,3
Jello-2f,Jello-2f_1_3,"0.0,0.8,0.7,1.6,0.0,0.1,0.0,0.0,0.0,0.0,0.0,0.0,1.5,0.0,0.0,1.6","0.0131404699715,-0.00883789305466,0.053806803537","10.0,1000.0,10.0,1.0,5000.0",0.0707851936,0.0525901097,0.0215263936,-5.55111512313E-017,-3.46944695195E-017,-6.50521303491E-018,0.0393561079,0.0582295587,0.0263128835,-0.142471669,-0.3524193781,-0.0606630607,0.0392345083,0.0585141721,0.0258236112,-0.1317726822,-0.3465712272,-0.0387829252,4
Jello-2f,Jello-2f_2_4,"0.0,0.8,0.7,1.6,0.0,0.1,0.0,0.0,0.0,0.0,0.0,0.0,1.5,0.0,0.0,1.6","0.0131404699715,-0.00883789305466,0.053806803537","10.0,1000.0,10.0,1.0,5000.0",0.0707851936,0.0525901097,0.0215263936,-5.55111512313E-017,-3.46944695195E-017,-6.50521303491E-018,0.04202828,0.0638618026,0.0455337759,0.0940834667,-0.1083029269,0.3272892589,0.0416666545,0.0636898652,0.044848835,0.0937937175,-0.1160758071,0.3250408833,0
Jello-2f,Jello-2f_2_4,"0.0,0.8,0.7,1.6,0.0,0.1,0.0,0.0,0.0,0.0,0.0,0.0,1.5,0.0,0.0,1.6","0.0131404699715,-0.00883789305466,0.053806803537","10.0,1000.0,10.0,1.0,5000.0",0.0707851936,0.0525901097,0.0215263936,-5.55111512313E-017,-3.46944695195E-017,-6.50521303491E-018,0.04202828,0.0638618026,0.0455337759,0.0940834667,-0.1083029269,0.3272892589,0.0416666545,0.0636898652,0.044848835,0.0937937175,-0.1160758071,0.3250408833,1
Jello-2f,Jello-2f_2_4,"0.0,0.8,0.7,1.6,0.0,0.1,0.0,0.0,0.0,0.0,0.0,0.0,1.5,0.0,0.0,1.6","0.0131404699715,-0.00883789305466,0.053806803537","10.0,1000.0,10.0,1.0,5000.0",0.0707851936,0.0525901097,0.0215263936,-5.55111512313E-017,-3.46944695195E-017,-6.50521303491E-018,0.04202828,0.0638618026,0.0455337759,0.0940834667,-0.1083029269,0.3272892589,0.0416666545,0.0636898652,0.044848835,0.0937937175,-0.1160758071,0.3250408833,2
Jello-2f,Jello-2f_2_4,"0.0,0.8,0.7,1.6,0.0,0.1,0.0,0.0,0.0,0.0,0.0,0.0,1.5,0.0,0.0,1.6","0.0131404699715,-0.00883789305466,0.053806803537","10.0,1000.0,10.0,1.0,5000.0",0.0707851936,0.0525901097,0.0215263936,-5.55111512313E-017,-3.46944695195E-017,-6.50521303491E-018,0.04202828,0.0638618026,0.0455337759,0.0940834667,-0.1083029269,0.3272892589,0.0416666545,0.0636898652,0.044848835,0.0937937175,-0.1160758071,0.3250408833,3
Jello-2f,Jello-2f_2_4,"0.0,0.8,0.7,1.6,0.0,0.1,0.0,0.0,0.0,0.0,0.0,0.0,1.5,0.0,0.0,1.6","0.0131404699715,-0.00883789305466,0.053806803537","10.0,1000.0,10.0,1.0,5000.0",0.0707851936,0.0525901097,0.0215263936,-5.55111512313E-017,-3.46944695195E-017,-6.50521303491E-018,0.04202828,0.0638618026,0.0455337759,0.0940834667,-0.1083029269,0.3272892589,0.0416666545,0.0636898652,0.044848835,0.0937937175,-0.1160758071,0.3250408833,4
Lego,Lego_0_0,"0.0,1.0,0.7,1.4,0.0,1.0,0.7,1.4,0.0,1.0,0.7,1.4,1.6,0.0,0.0,1.6 ","-0.00130107988194,0.0134180618084,0.0352682256985","10.0,1000.0,10.0,1.0,5000.0",0.090598697,0.0218153524,0.0062731914,-1.38777878078E-017,-4.85722573274E-017,-4.38017677684E-017,0.0650012647,0.0651938967,0.043467161,0.0150750444,0.069060623,0.4886135239,0.0670000221,0.0244267696,0.050834043,-0.0183588036,0.039108757,-0.0046653006,0
Lego,Lego_0_0,"0.0,1.0,0.7,1.4,0.0,1.0,0.7,1.4,0.0,1.0,0.7,1.4,1.6,0.0,0.0,1.6 ","-0.00130107988194,0.0134180618084,0.0352682256985","10.0,1000.0,10.0,1.0,5000.0",0.090598697,0.0218153524,0.0062731914,-1.38777878078E-017,-4.85722573274E-017,-4.38017677684E-017,0.0650012647,0.0651938967,0.043467161,0.0150750444,0.069060623,0.4886135239,0.0670000221,0.0244267696,0.050834043,-0.0183588036,0.039108757,-0.0046653006,1
Lego,Lego_0_0,"0.0,1.0,0.7,1.4,0.0,1.0,0.7,1.4,0.0,1.0,0.7,1.4,1.6,0.0,0.0,1.6 ","-0.00130107988194,0.0134180618084,0.0352682256985","10.0,1000.0,10.0,1.0,5000.0",0.090598697,0.0218153524,0.0062731914,-1.38777878078E-017,-4.85722573274E-017,-4.38017677684E-017,0.0650012647,0.0651938967,0.043467161,0.0150750444,0.069060623,0.4886135239,0.0670000221,0.0244267696,0.050834043,-0.0183588036,0.039108757,-0.0046653006,2
Lego,Lego_0_0,"0.0,1.0,0.7,1.4,0.0,1.0,0.7,1.4,0.0,1.0,0.7,1.4,1.6,0.0,0.0,1.6 ","-0.00130107988194,0.0134180618084,0.0352682256985","10.0,1000.0,10.0,1.0,5000.0",0.090598697,0.0218153524,0.0062731914,-1.38777878078E-017,-4.85722573274E-017,-4.38017677684E-017,0.0650012647,0.0651938967,0.043467161,0.0150750444,0.069060623,0.4886135239,0.0670000221,0.0244267696,0.050834043,-0.0183588036,0.039108757,-0.0046653006,3
Lego,Lego_0_0,"0.0,1.0,0.7,1.4,0.0,1.0,0.7,1.4,0.0,1.0,0.7,1.4,1.6,0.0,0.0,1.6 ","-0.00130107988194,0.0134180618084,0.0352682256985","10.0,1000.0,10.0,1.0,5000.0",0.090598697,0.0218153524,0.0062731914,-1.38777878078E-017,-4.85722573274E-017,-4.38017677684E-017,0.0650012647,0.0651938967,0.043467161,0.0150750444,0.069060623,0.4886135239,0.0670000221,0.0244267696,0.050834043,-0.0183588036,0.039108757,-0.0046653006,4
