Apple,Apple_0_0,"0.0,0.1,1.0,1.4,0.0,0.1,1.0,1.4,0.0,0.0,0.0,0.0,1.6,0.0,0.6,1.1","0.010263352958,-0.00898004198567,0.0561687727492","10.0,1000.0,0.0,0.0,5000.0",0.056573660800000002,0.0442625065,0.051836641099999997,0.0,0.0,-8.6736173798800003e-18,0.1024474138,0.045061725699999999,0.015875710500000001,-0.1002139316,0.35977625540000002,-0.10557945740000001,0.1021788803,0.047451377599999997,0.0157969242,-0.092017577000000003,0.36487588589999997,-0.077055301600000001
Apple,Apple_1_1,"0.0,0.1,1.0,1.4,0.0,0.1,1.0,1.4,0.0,0.0,0.0,0.0,1.6,0.0,0.6,1.1","0.010263352958,-0.00898004198567,0.0561687727492","10.0,1000.0,0.0,0.0,5000.0",0.056573660800000002,0.0442625065,0.051836641099999997,0.0,0.0,-8.6736173798800003e-18,0.077059894700000006,0.067291712700000006,0.019476807799999999,-0.1539617257,0.15512921230000001,0.066164236799999998,0.0770598953,0.067291712000000004,0.019476808299999999,-0.15396172159999999,0.15512921590000001,0.066164232200000006
Apple,Apple_2_2,"0.0,0.1,1.0,1.4,0.0,0.1,1.0,1.4,0.0,0.0,0.0,0.0,1.6,0.0,0.6,1.1","0.010263352958,-0.00898004198567,0.0561687727492","10.0,1000.0,0.0,0.0,5000.0",0.056573660800000002,0.0442625065,0.051836641099999997,0.0,0.0,-8.6736173798800003e-18,0.080893560700000006,0.051847917399999999,0.0263698596,0.149561525,0.20075033610000001,0.24513725980000001,0.080892675299999994,0.051847734399999998,0.0263731299,0.14955858599999999,0.2007413297,0.2451362584
Apple,Apple_3_3,"0.0,0.1,1.0,1.4,0.0,0.1,1.0,1.4,0.0,0.0,0.0,0.0,1.6,0.0,0.6,1.1","0.010263352958,-0.00898004198567,0.0561687727492","10.0,1000.0,0.0,0.0,5000.0",0.056573660800000002,0.0442625065,0.051836641099999997,0.0,0.0,-8.6736173798800003e-18,0.0972928921,0.091632174100000005,0.022009831699999999,-0.1584082071,0.47144940210000003,0.1888866193,0.097244848300000006,0.091558217900000002,0.0221091684,-0.1576403281,0.47084549149999999,0.18926523689999999
Apple,Apple_4_4,"0.0,0.1,1.0,1.4,0.0,0.1,1.0,1.4,0.0,0.0,0.0,0.0,1.6,0.0,0.6,1.1","0.010263352958,-0.00898004198567,0.0561687727492","10.0,1000.0,0.0,0.0,5000.0",0.056573660800000002,0.0442625065,0.051836641099999997,0.0,0.0,-8.6736173798800003e-18,0.105218353,0.095071486799999994,0.0071457795000000003,-0.22223509969999999,0.55692757839999996,0.13752214439999999,0.10557481019999999,0.095537562100000001,0.0079546632999999995,-0.2255682389,0.55995595070000004,0.134783712
Apple,Apple_5_5,"0.0,0.8,0.7,1.6,0.0,0.8,0.7,1.6,0.0,0.0,0.0,0.0,1.6,0.0,0.0,1.6","0.010263352958,-0.00898004198567,0.0561687727492","10.0,1000.0,0.0,0.0,5000.0",0.075500234200000002,0.044226767399999999,0.024766674700000001,-1.38777878078e-17,-4.8572257327400001e-17,-4.3801767768400001e-17,0.037525242700000003,0.042971896900000001,0.050745222200000002,0.097290123800000003,-0.24592351479999999,0.16173542290000001,0.037525242799999997,0.042971896599999997,0.050745223800000003,0.097290125199999994,-0.24592350430000001,0.16173542060000001
Apple,Apple_6_6,"0.0,0.8,0.7,1.6,0.0,0.8,0.7,1.6,0.0,0.0,0.0,0.0,1.6,0.0,0.0,1.6","0.010263352958,-0.00898004198567,0.0561687727492","10.0,1000.0,0.0,0.0,5000.0",0.075500234200000002,0.044226767399999999,0.024766674700000001,-1.38777878078e-17,-4.8572257327400001e-17,-4.3801767768400001e-17,0.046905896199999998,0.065859748499999995,0.036583703400000001,-0.049278466700000002,-0.16928024950000001,0.2468376749,0.046909061199999998,0.065856184999999998,0.036584378399999999,-0.049225148900000001,-0.16925644579999999,0.24684740359999999
Apple,Apple_7_7,"0.0,0.8,0.7,1.6,0.0,0.8,0.7,1.6,0.0,0.0,0.0,0.0,1.6,0.0,0.0,1.6","0.010263352958,-0.00898004198567,0.0561687727492","10.0,1000.0,0.0,0.0,5000.0",0.075500234200000002,0.044226767399999999,0.024766674700000001,-1.38777878078e-17,-4.8572257327400001e-17,-4.3801767768400001e-17,0.096958438899999999,0.0054962717999999999,0.044984675199999997,0.29254049609999999,0.25029971350000002,0.0033682219000000001,0.093558957299999995,0.0064242824,0.042770851200000001,0.31920481249999999,0.2049028105,0.028587135199999999
Apple,Apple_8_8,"0.0,0.8,0.7,1.6,0.0,0.8,0.7,1.6,0.0,0.0,0.0,0.0,1.6,0.0,0.0,1.6","0.010263352958,-0.00898004198567,0.0561687727492","10.0,1000.0,0.0,0.0,5000.0",0.075500234200000002,0.044226767399999999,0.024766674700000001,-1.38777878078e-17,-4.8572257327400001e-17,-4.3801767768400001e-17,0.046169575900000002,0.034564933399999997,0.041141569900000001,0.30427949999999998,-0.23188256809999999,0.30637990659999997,0.046169579400000001,0.0345649372,0.041141549100000001,0.304279513,-0.23188262239999999,0.30637986680000001
Apple,Apple_9_9,"0.0,0.8,0.7,1.6,0.0,0.8,0.7,1.6,0.0,0.0,0.0,0.0,1.6,0.0,0.0,1.6","0.010263352958,-0.00898004198567,0.0561687727492","10.0,1000.0,0.0,0.0,5000.0",0.075500234200000002,0.044226767399999999,0.024766674700000001,-1.38777878078e-17,-4.8572257327400001e-17,-4.3801767768400001e-17,0.044725541799999997,0.066889873200000005,0.044811769000000001,0.010402730299999999,-0.1290639942,0.33916542599999999,0.044731988100000002,0.066885710500000001,0.044812813299999997,0.010432305899999999,-0.1290280878,0.33912340680000003
Banana,Banana_0_10,"0.15,0.2,1.2,1.6,0.2,0.1,1.1,1.6,0.0,0.0,0.0,0.0,1.62,0.0,1.0,0.7","-0.00738136755104,-0.00226399044464,0.0252434352664","10.0,1000.0,0.0,0.0,5000.0",0.064500270200000001,0.035577137100000003,0.038473964100000001,-2.77555756156e-17,-5.5511151231299994e-17,-1.21430643318e-17,0.097624520100000001,0.032818095399999997,-0.00068974710000000003,-0.021388806900000001,0.13004423430000001,-0.0413225906,0.097503531000000004,0.035236361799999998,-0.00086052120000000001,-0.0104306843,0.13410550430000001,-0.012154700900000001
Banana,Banana_1_11,"0.15,0.2,1.2,1.6,0.2,0.1,1.1,1.6,0.0,0.0,0.0,0.0,1.62,0.0,1.0,0.7","-0.00738136755104,-0.00226399044464,0.0252434352664","10.0,1000.0,0.0,0.0,5000.0",0.064500270200000001,0.035577137100000003,0.038473964100000001,-2.77555756156e-17,-5.5511151231299994e-17,-1.21430643318e-17,0.082766352200000004,0.061019110799999998,-0.0023621254000000002,-0.00028719530000000001,0.020728561900000001,0.2516212391,0.082766352400000007,0.061019111100000002,-0.0023621238000000001,-0.00028719629999999997,0.0207285686,0.25162123829999999
Banana,Banana_2_12,"0.15,0.2,1.2,1.6,0.2,0.1,1.1,1.6,0.0,0.0,0.0,0.0,1.62,0.0,1.0,0.7","-0.00738136755104,-0.00226399044464,0.0252434352664","10.0,1000.0,0.0,0.0,5000.0",0.064500270200000001,0.035577137100000003,0.038473964100000001,-2.77555756156e-17,-5.5511151231299994e-17,-1.21430643318e-17,0.097467788400000005,0.046742468000000002,-0.0080367726000000004,0.44373528759999997,0.15310578380000001,0.4082449178,0.10027749449999999,0.0435196916,-0.0030631444,0.72404814640000004,0.120566534,0.62397013270000001
Banana,Banana_3_13,"0.15,0.2,1.2,1.6,0.2,0.1,1.1,1.6,0.0,0.0,0.0,0.0,1.62,0.0,1.0,0.7","-0.00738136755104,-0.00226399044464,0.0252434352664","10.0,1000.0,0.0,0.0,5000.0",0.064500270200000001,0.035577137100000003,0.038473964100000001,-2.77555756156e-17,-5.5511151231299994e-17,-1.21430643318e-17,0.079185275700000002,0.076759977800000004,-0.0026656021,-0.15361288100000001,0.049593699499999998,0.28626928350000003,0.079198536099999994,0.076756312800000004,-0.0026635744999999999,-0.15355067359999999,0.049751640999999999,0.286208876
Banana,Banana_4_14,"0.15,0.2,1.2,1.6,0.2,0.1,1.1,1.6,0.0,0.0,0.0,0.0,1.62,0.0,1.0,0.7","-0.00738136755104,-0.00226399044464,0.0252434352664","10.0,1000.0,0.0,0.0,5000.0",0.064500270200000001,0.035577137100000003,0.038473964100000001,-2.77555756156e-17,-5.5511151231299994e-17,-1.21430643318e-17,0.085273076899999994,0.036159795699999997,-0.0107397139,0.30596436069999999,-0.027254381599999999,0.198691321,0.087332795899999996,0.036060704899999997,-0.0045394535000000003,0.2984379056,-0.0026905724000000002,0.20695378249999999
Banana,Banana_5_15,"0.0,1.0,0.7,1.6,0.0,1.0,0.7,1.6,0.0,0.0,0.0,0.0,1.6,0.0,0.0,1.6","-0.00738136755104,-0.00226399044464,0.0252434352664","10.0,1000.0,0.0,0.0,5000.0",0.095126236599999997,0.037257152100000003,-0.0048823134999999998,-1.38777878078e-17,-4.8572257327400001e-17,-4.3801767768400001e-17,0.063330450900000002,0.033692866299999999,0.042091504000000002,0.047078957900000003,-0.020085467700000002,0.0178695486,0.067367041799999999,0.033712450900000003,0.038659801000000001,0.054216300000000002,-0.056642889799999999,0.0179540285
Banana,Banana_6_16,"0.0,1.0,0.7,1.6,0.0,1.0,0.7,1.6,0.0,0.0,0.0,0.0,1.6,0.0,0.0,1.6","-0.00738136755104,-0.00226399044464,0.0252434352664","10.0,1000.0,0.0,0.0,5000.0",0.095126236599999997,0.037257152100000003,-0.0048823134999999998,-1.38777878078e-17,-4.8572257327400001e-17,-4.3801767768400001e-17,0.046377249500000002,0.078455630700000001,0.035722356800000001,-0.067029577500000007,-0.061913861200000003,0.45120659099999999,0.050346816199999998,0.077723421099999995,0.031284038100000001,-0.0410036155,-0.11465216289999999,0.45840003550000002
Banana,Banana_7_17,"0.0,1.0,0.7,1.6,0.0,1.0,0.7,1.6,0.0,0.0,0.0,0.0,1.6,0.0,0.0,1.6","-0.00738136755104,-0.00226399044464,0.0252434352664","10.0,1000.0,0.0,0.0,5000.0",0.095126236599999997,0.037257152100000003,-0.0048823134999999998,-1.38777878078e-17,-4.8572257327400001e-17,-4.3801767768400001e-17,0.1006766706,0.041419490400000002,-6.5335999999999999e-05,0.60515616699999997,0.079012076700000003,0.45665657580000002,0.10067407120000001,0.041418663000000001,-6.3285822868000004e-05,0.60512825290000005,0.078983928300000006,0.4566304612
Banana,Banana_8_18,"0.0,1.0,0.7,1.6,0.0,1.0,0.7,1.6,0.0,0.0,0.0,0.0,1.6,0.0,0.0,1.6","-0.00738136755104,-0.00226399044464,0.0252434352664","10.0,1000.0,0.0,0.0,5000.0",0.095126236599999997,0.037257152100000003,-0.0048823134999999998,-1.38777878078e-17,-4.8572257327400001e-17,-4.3801767768400001e-17,0.082369774800000004,0.069579463300000005,0.026862836300000002,-0.14543018869999999,0.1540628245,0.1329739777,0.082370300800000004,0.069579372,0.0268623887,-0.14542856270000001,0.1540624662,0.13297449240000001
Banana,Banana_9_19,"0.0,1.0,0.7,1.6,0.0,1.0,0.7,1.6,0.0,0.0,0.0,0.0,1.6,0.0,0.0,1.6","-0.00738136755104,-0.00226399044464,0.0252434352664","10.0,1000.0,0.0,0.0,5000.0",0.095126236599999997,0.037257152100000003,-0.0048823134999999998,-1.38777878078e-17,-4.8572257327400001e-17,-4.3801767768400001e-17,0.066428326300000007,-0.0011030230000000001,0.0352489504,0.33243748400000001,-0.10775578249999999,-0.074434837700000006,0.066167383400000002,-0.0001072135,0.0352735042,0.3435121512,-0.11051356919999999,-0.049765455
Jello,Jello_0_20,"0.2,0.6,1.0,0.1,0.2,0.6,1.0,0.1,0.0,0.0,0.0,0.0,1.4,0.0,0.6,1.1","0.0132555453448,0.00365370610525,0.0540270641992","10.0,1000.0,0.0,0.0,5000.0",0.053882981500000003,0.046049444699999997,0.049127319000000003,-1.38777878078e-17,0.0,9.3675067702700005e-17,0.083143377099999999,0.027385270100000001,0.015867573900000001,-0.0671190012,0.16609089560000001,-0.27052079750000002,0.083215674599999997,0.029377437900000001,0.0156642832,-0.059073089099999997,0.17170124389999999,-0.24152730780000001
Jello,Jello_1_21,"0.2,0.6,1.0,0.1,0.2,0.6,1.0,0.1,0.0,0.0,0.0,0.0,1.4,0.0,0.6,1.1","0.0132555453448,0.00365370610525,0.0540270641992","10.0,1000.0,0.0,0.0,5000.0",0.053882981500000003,0.046049444699999997,0.049127319000000003,-1.38777878078e-17,0.0,9.3675067702700005e-17,0.091636356299999999,0.058107294900000002,0.0192853685,-0.2139568858,0.2593286139,-0.14366458900000001,0.091382222900000004,0.057966078800000001,0.019237683299999999,-0.21181577069999999,0.2572097948,-0.1422329198
Jello,Jello_2_22,"0.2,0.6,1.0,0.1,0.2,0.6,1.0,0.1,0.0,0.0,0.0,0.0,1.4,0.0,0.6,1.1","0.0132555453448,0.00365370610525,0.0540270641992","10.0,1000.0,0.0,0.0,5000.0",0.053882981500000003,0.046049444699999997,0.049127319000000003,-1.38777878078e-17,0.0,9.3675067702700005e-17,0.066845620300000005,0.060859053199999999,0.0156102498,-0.0032276172,0.1044060282,0.15791519000000001,0.066845632899999993,0.060859062800000002,0.0156102503,-0.0032275237000000002,0.1044062265,0.1579153606
Jello,Jello_3_23,"0.2,0.6,1.0,0.1,0.2,0.6,1.0,0.1,0.0,0.0,0.0,0.0,1.4,0.0,0.6,1.1","0.0132555453448,0.00365370610525,0.0540270641992","10.0,1000.0,0.0,0.0,5000.0",0.053882981500000003,0.046049444699999997,0.049127319000000003,-1.38777878078e-17,0.0,9.3675067702700005e-17,0.096635255099999998,0.041071432300000002,0.0156940751,0.11134163850000001,0.36496340179999998,0.061460050799999999,0.096655603399999998,0.041073636500000003,0.015820984600000001,0.11125852880000001,0.36496767270000002,0.061479218600000003
Jello,Jello_4_24,"0.2,0.6,1.0,0.1,0.2,0.6,1.0,0.1,0.0,0.0,0.0,0.0,1.4,0.0,0.6,1.1","0.0132555453448,0.00365370610525,0.0540270641992","10.0,1000.0,0.0,0.0,5000.0",0.053882981500000003,0.046049444699999997,0.049127319000000003,-1.38777878078e-17,0.0,9.3675067702700005e-17,0.092174091900000005,0.092218871600000002,0.0085331195000000002,-0.22119848389999999,0.44921151570000001,0.1410648092,0.092043399400000003,0.092166839299999997,0.0085943657000000003,-0.22092938140000001,0.4476527341,0.14125053330000001
Jello,Jello_5_25,"0.0,0.7,0.7,1.6,0.0,0.7,0.7,1.6,0.0,0.0,0.0,0.0,1.6,0.0,0.0,1.6","0.0132555453448,0.00365370610525,0.0540270641992","10.0,1000.0,0.0,0.0,5000.0",0.074174430099999994,0.0311835718,0.0236401693,-1.38777878078e-17,-4.8572257327400001e-17,-4.3801767768400001e-17,0.034098236599999998,0.0323521638,0.049279819000000002,-0.0080741683000000002,-0.28634551930000002,0.014203019399999999,0.034098261400000003,0.032352154000000001,0.049279738699999999,-0.0080740980999999996,-0.28634590850000002,0.014203081899999999
Jello,Jello_6_26,"0.0,0.7,0.7,1.6,0.0,0.7,0.7,1.6,0.0,0.0,0.0,0.0,1.6,0.0,0.0,1.6","0.0132555453448,0.00365370610525,0.0540270641992","10.0,1000.0,0.0,0.0,5000.0",0.074174430099999994,0.0311835718,0.0236401693,-1.38777878078e-17,-4.8572257327400001e-17,-4.3801767768400001e-17,0.045161709000000001,0.0422649249,0.045197814099999997,0.093877125399999997,-0.18069466270000001,0.3183316947,0.045165244299999997,0.042266271399999999,0.045198255299999997,0.093878959400000003,-0.18065847970000001,0.31833729690000001
Jello,Jello_7_27,"0.0,0.7,0.7,1.6,0.0,0.7,0.7,1.6,0.0,0.0,0.0,0.0,1.6,0.0,0.0,1.6","0.0132555453448,0.00365370610525,0.0540270641992","10.0,1000.0,0.0,0.0,5000.0",0.074174430099999994,0.0311835718,0.0236401693,-1.38777878078e-17,-4.8572257327400001e-17,-4.3801767768400001e-17,0.054602643899999997,0.050123661100000001,0.037337133000000002,0.042571536899999998,-0.1123417869,0.30481968230000001,0.054602735999999999,0.050123292299999997,0.0373371329,0.0425751724,-0.1123420527,0.3048195313
Jello,Jello_8_28,"0.0,0.7,0.7,1.6,0.0,0.7,0.7,1.6,0.0,0.0,0.0,0.0,1.6,0.0,0.0,1.6","0.0132555453448,0.00365370610525,0.0540270641992","10.0,1000.0,0.0,0.0,5000.0",0.074174430099999994,0.0311835718,0.0236401693,-1.38777878078e-17,-4.8572257327400001e-17,-4.3801767768400001e-17,0.065255599600000005,0.064535669899999995,0.022860681399999999,0.16992145580000001,0.022879730899999999,0.54844288549999998,0.065254750599999994,0.064535153499999998,0.022860811200000001,0.16991892240000001,0.0228696535,0.54843956569999996
Jello,Jello_9_29,"0.0,0.7,0.7,1.6,0.0,0.7,0.7,1.6,0.0,0.0,0.0,0.0,1.6,0.0,0.0,1.6","0.0132555453448,0.00365370610525,0.0540270641992","10.0,1000.0,0.0,0.0,5000.0",0.074174430099999994,0.0311835718,0.0236401693,-1.38777878078e-17,-4.8572257327400001e-17,-4.3801767768400001e-17,0.064095817099999994,0.0638746122,0.015600524100000001,0.099686377699999995,0.012922888800000001,0.47438924030000001,0.064095817499999999,0.063874620699999995,0.015600561299999999,0.099686314900000003,0.0129228916,0.47438925900000001
Lego,Lego_0_30,"0.0,0.4,1.3,1.46,0.0,0.4,1.3,1.47,0.0,0.0,0.0,0.0,1.5,0.0,0.7,1.12","-0.00130107988194,0.0134180618084,0.0352682256985","10.0,1000.0,0.0,0.0,5000.0",0.061869082999999998,0.028980501499999999,0.036422125399999998,-1.38777878078e-17,-2.77555756156e-17,7.8929918156900004e-17,0.1041660462,0.020926763300000002,-0.0016401471,-0.16077508509999999,0.36735706709999999,-0.22672152200000001,0.10471796429999999,0.023261132100000002,-0.0014419436,-0.14338747830000001,0.37821024720000002,-0.1919565164
Lego,Lego_1_31,"0.0,0.4,1.3,1.46,0.0,0.4,1.3,1.47,0.0,0.0,0.0,0.0,1.5,0.0,0.7,1.12","-0.00130107988194,0.0134180618084,0.0352682256985","10.0,1000.0,0.0,0.0,5000.0",0.061869082999999998,0.028980501499999999,0.036422125399999998,-1.38777878078e-17,-2.77555756156e-17,7.8929918156900004e-17,0.087223853800000001,0.078692399699999999,-0.0066521428999999997,-0.099042211500000005,0.36286484920000001,0.33607971279999999,0.087226611800000006,0.078689161399999999,-0.0066532785000000001,-0.098950195500000004,0.36289284919999998,0.3361267563
Lego,Lego_2_32,"0.0,0.4,1.3,1.46,0.0,0.4,1.3,1.47,0.0,0.0,0.0,0.0,1.5,0.0,0.7,1.12","-0.00130107988194,0.0134180618084,0.0352682256985","10.0,1000.0,0.0,0.0,5000.0",0.061869082999999998,0.028980501499999999,0.036422125399999998,-1.38777878078e-17,-2.77555756156e-17,7.8929918156900004e-17,0.1061365084,0.0249469836,-0.021160103400000001,0.72812310670000002,0.30860309460000002,0.52694395159999996,0.1060955004,0.0249408003,-0.021137585300000001,0.72737910439999998,0.30839086500000001,0.52624790799999999
Lego,Lego_3_33,"0.0,0.4,1.3,1.46,0.0,0.4,1.3,1.47,0.0,0.0,0.0,0.0,1.5,0.0,0.7,1.12","-0.00130107988194,0.0134180618084,0.0352682256985","10.0,1000.0,0.0,0.0,5000.0",0.061869082999999998,0.028980501499999999,0.036422125399999998,-1.38777878078e-17,-2.77555756156e-17,7.8929918156900004e-17,0.092438832700000001,0.059849557400000003,-0.0020886477000000001,0.0503573587,0.3306764875,0.3027239578,0.092437808900000001,0.059851825800000001,-0.0020886019000000001,0.050349345199999999,0.3306735965,0.30273785069999998
Lego,Lego_4_34,"0.0,0.4,1.3,1.46,0.0,0.4,1.3,1.47,0.0,0.0,0.0,0.0,1.5,0.0,0.7,1.12","-0.00130107988194,0.0134180618084,0.0352682256985","10.0,1000.0,0.0,0.0,5000.0",0.061869082999999998,0.028980501499999999,0.036422125399999998,-1.38777878078e-17,-2.77555756156e-17,7.8929918156900004e-17,0.072277926500000006,0.062728588900000007,-0.0025705705000000001,-0.12658751600000001,0.083120610999999997,0.24960302079999999,0.072452515300000006,0.063190177599999994,-0.0019365218999999999,-0.13179451889999999,0.085775456999999999,0.2473267495
Lego,Lego_5_35,"0.0,1.0,0.7,1.4,0.0,1.0,0.7,1.4,0.0,0.0,0.0,0.0,1.6,0.0,0.0,1.6","-0.00130107988194,0.0134180618084,0.0352682256985","10.0,1000.0,0.0,0.0,5000.0",0.090598697000000006,0.021815352400000002,0.0062731914000000001,-1.38777878078e-17,-4.8572257327400001e-17,-4.3801767768400001e-17,0.067000022100000001,0.024426769599999999,0.050834043000000002,-0.018358803600000001,0.039108757000000001,-0.0046653006,0.067665344899999993,0.024134037600000002,0.0490508661,-0.0141167203,0.0088690929999999998,-0.0031696971
Lego,Lego_6_36,"0.0,1.0,0.7,1.4,0.0,1.0,0.7,1.4,0.0,0.0,0.0,0.0,1.6,0.0,0.0,1.6","-0.00130107988194,0.0134180618084,0.0352682256985","10.0,1000.0,0.0,0.0,5000.0",0.090598697000000006,0.021815352400000002,0.0062731914000000001,-1.38777878078e-17,-4.8572257327400001e-17,-4.3801767768400001e-17,0.065001264700000005,0.065193896700000004,0.043467160999999997,0.015075044399999999,0.069060623000000002,0.48861352390000001,0.0650018547,0.0651934874,0.043466840100000001,0.015076906500000001,0.069059200500000001,0.48860882039999998
Lego,Lego_7_37,"0.0,1.0,0.7,1.4,0.0,1.0,0.7,1.4,0.0,0.0,0.0,0.0,1.6,0.0,0.0,1.6","-0.00130107988194,0.0134180618084,0.0352682256985","10.0,1000.0,0.0,0.0,5000.0",0.090598697000000006,0.021815352400000002,0.0062731914000000001,-1.38777878078e-17,-4.8572257327400001e-17,-4.3801767768400001e-17,0.071055899699999994,0.076727752999999996,0.0132589163,0.058571825799999998,-0.023935313499999999,0.59463482850000005,0.070471729699999999,0.075888486500000005,0.0111568528,0.0640920777,-0.041260281900000001,0.59595635089999999
Lego,Lego_8_38,"0.0,1.0,0.7,1.4,0.0,1.0,0.7,1.4,0.0,0.0,0.0,0.0,1.6,0.0,0.0,1.6","-0.00130107988194,0.0134180618084,0.0352682256985","10.0,1000.0,0.0,0.0,5000.0",0.090598697000000006,0.021815352400000002,0.0062731914000000001,-1.38777878078e-17,-4.8572257327400001e-17,-4.3801767768400001e-17,0.075355284800000005,0.037669176700000001,0.040588876199999999,0.1609828837,0.024711779199999999,0.35434592440000001,0.075355284699999997,0.0376691766,0.040588876099999997,0.1609828834,0.0247117764,0.3543459223
Lego,Lego_9_39,"0.0,1.0,0.7,1.4,0.0,1.0,0.7,1.4,0.0,0.0,0.0,0.0,1.6,0.0,0.0,1.6","-0.00130107988194,0.0134180618084,0.0352682256985","10.0,1000.0,0.0,0.0,5000.0",0.090598697000000006,0.021815352400000002,0.0062731914000000001,-1.38777878078e-17,-4.8572257327400001e-17,-4.3801767768400001e-17,0.069465132099999993,-0.0147011256,0.025577976499999999,0.34299202820000002,-0.1564072514,-0.083319330900000002,0.069639100199999998,-0.013789121600000001,0.025634593800000001,0.35309001200000001,-0.15883011459999999,-0.063033623499999997
Fork,Fork_0_40,"0.2,0.3,1.4,1.4,0.2,0.3,1.4,1.4,0.0,0.0,0.0,0.0,1.48,0.0,0.9,0.79","-0.0104968034779,0.0516441024631,0.0184326385829","10.0,1000.0,0.0,0.0,5000.0",0.084455206099999999,-0.0036395265999999999,0.032724828400000003,1.38777878078e-17,-8.3266726846900003e-17,1.56125112838e-17,0.095383446100000005,-0.0013377802000000001,-0.0044960944000000001,-0.13028539280000001,-0.1141750278,-0.040838366199999997,0.096185183800000004,-0.00034586600000000001,-0.0022679243999999999,-0.13782864810000001,-0.1022876076,-0.0433123589
Fork,Fork_1_41,"0.2,0.3,1.4,1.4,0.2,0.3,1.4,1.4,0.0,0.0,0.0,0.0,1.48,0.0,0.9,0.79","-0.0104968034779,0.0516441024631,0.0184326385829","10.0,1000.0,0.0,0.0,5000.0",0.084455206099999999,-0.0036395265999999999,0.032724828400000003,1.38777878078e-17,-8.3266726846900003e-17,1.56125112838e-17,0.1089624573,0.019347726900000001,-0.0055428865000000001,0.037823468300000003,0.047443066899999997,0.1899363178,0.1089624277,0.0193477401,-0.0055428737,0.037823287099999998,0.047442616299999997,0.18993637190000001
Fork,Fork_2_42,"0.2,0.3,1.4,1.4,0.2,0.3,1.4,1.4,0.0,0.0,0.0,0.0,1.48,0.0,0.9,0.79","-0.0104968034779,0.0516441024631,0.0184326385829","10.0,1000.0,0.0,0.0,5000.0",0.084455206099999999,-0.0036395265999999999,0.032724828400000003,1.38777878078e-17,-8.3266726846900003e-17,1.56125112838e-17,0.099050788000000001,-0.030273774699999999,-0.0143937027,0.15607321630000001,0.0233442645,-0.1497862704,0.099608474799999999,-0.029151236600000002,-0.0144971215,0.16060848329999999,0.023441693999999999,-0.1378527457
Fork,Fork_3_43,"0.2,0.3,1.4,1.4,0.2,0.3,1.4,1.4,0.0,0.0,0.0,0.0,1.48,0.0,0.9,0.79","-0.0104968034779,0.0516441024631,0.0184326385829","10.0,1000.0,0.0,0.0,5000.0",0.084455206099999999,-0.0036395265999999999,0.032724828400000003,1.38777878078e-17,-8.3266726846900003e-17,1.56125112838e-17,0.099146374199999998,0.0376374191,-0.014644629399999999,-0.19817519820000001,-0.044406174,0.26868184470000001,0.1007327673,0.040038258600000001,-0.0070356363999999998,-0.19962069530000001,-0.027075902799999999,0.25664327250000002
Fork,Fork_4_44,"0.2,0.3,1.4,1.4,0.2,0.3,1.4,1.4,0.0,0.0,0.0,0.0,1.48,0.0,0.9,0.79","-0.0104968034779,0.0516441024631,0.0184326385829","10.0,1000.0,0.0,0.0,5000.0",0.084455206099999999,-0.0036395265999999999,0.032724828400000003,1.38777878078e-17,-8.3266726846900003e-17,1.56125112838e-17,0.1100900024,-0.0114471295,-0.0070311380999999997,-0.022257556299999998,0.1362971617,-0.093000508999999995,0.11009000319999999,-0.0114471281,-0.00703113,-0.022257565100000001,0.13629717790000001,-0.093000509199999998
Fork,Fork_5_45,"0.1,1.1,0.8,1.2,0.0,1.1,0.8,1.3,0.0,0.0,0.0,0.0,1.6,0.0,0.0,1.6","-0.0104968034779,0.0516441024631,0.0184326385829","10.0,1000.0,0.0,0.0,5000.0",0.1051194417,-0.016206526200000002,-0.0068688491999999999,-1.38777878078e-17,-4.8572257327400001e-17,-4.3801767768400001e-17,0.076006544499999995,-0.0085364120999999998,0.039307581299999998,-0.079626636799999997,-0.080565082699999999,-0.012942549500000001,0.076267074800000001,-0.0082767368000000001,0.0391910143,-0.077798434299999997,-0.079417624699999995,-0.0082007203000000004
Fork,Fork_6_46,"0.1,1.1,0.8,1.2,0.0,1.1,0.8,1.3,0.0,0.0,0.0,0.0,1.6,0.0,0.0,1.6","-0.0104968034779,0.0516441024631,0.0184326385829","10.0,1000.0,0.0,0.0,5000.0",0.1051194417,-0.016206526200000002,-0.0068688491999999999,-1.38777878078e-17,-4.8572257327400001e-17,-4.3801767768400001e-17,0.081540570800000003,-0.0238001737,0.029763798000000001,0.1412138097,-0.0498440728,0.060654962999999999,0.081819160299999999,-0.023808536299999999,0.029498210600000001,0.1416109321,-0.051562700000000003,0.059955564000000003
Fork,Fork_7_47,"0.1,1.1,0.8,1.2,0.0,1.1,0.8,1.3,0.0,0.0,0.0,0.0,1.6,0.0,0.0,1.6","-0.0104968034779,0.0516441024631,0.0184326385829","10.0,1000.0,0.0,0.0,5000.0",0.1051194417,-0.016206526200000002,-0.0068688491999999999,-1.38777878078e-17,-4.8572257327400001e-17,-4.3801767768400001e-17,0.0934144222,0.026150622200000001,0.027127617,0.00066451029999999999,-0.040426123899999999,0.37768103879999998,0.093413786999999998,0.026150552899999999,0.0271293578,0.00066065340000000001,-0.040407493500000002,0.37767875870000001
Fork,Fork_8_48,"0.1,1.1,0.8,1.2,0.0,1.1,0.8,1.3,0.0,0.0,0.0,0.0,1.6,0.0,0.0,1.6","-0.0104968034779,0.0516441024631,0.0184326385829","10.0,1000.0,0.0,0.0,5000.0",0.1051194417,-0.016206526200000002,-0.0068688491999999999,-1.38777878078e-17,-4.8572257327400001e-17,-4.3801767768400001e-17,0.085005524200000002,-0.048175063800000001,0.0068947812000000001,0.39075047530000001,-0.1181129108,-0.024049567800000001,0.085006202000000003,-0.048175280100000002,0.0068942824999999996,0.39075433139999999,-0.1181049497,-0.024047240599999999
Fork,Fork_9_49,"0.1,1.1,0.8,1.2,0.0,1.1,0.8,1.3,0.0,0.0,0.0,0.0,1.6,0.0,0.0,1.6","-0.0104968034779,0.0516441024631,0.0184326385829","10.0,1000.0,0.0,0.0,5000.0",0.1051194417,-0.016206526200000002,-0.0068688491999999999,-1.38777878078e-17,-4.8572257327400001e-17,-4.3801767768400001e-17,0.080647280299999999,-0.0082455311,0.035064955100000003,0.0076490135000000002,-0.077591784999999996,0.082913698899999999,0.080647279299999999,-0.0082455311,0.035064956199999997,0.0076490114999999996,-0.077591777900000006,0.082913698300000005
Orange,Orange_0_50,"0.0,0.1,1.0,1.4,0.0,0.1,1.1,1.4,0.0,0.0,0.0,0.0,1.6,0.0,0.7,1.1","0.0086928154284,0.0169375510579,0.0556418533901","10.0,1000.0,0.0,0.0,5000.0",0.048860536000000003,0.0173879007,0.055232136199999997,0.0,2.77555756156e-17,1.7347234759800001e-17,0.083162337099999997,0.015966032299999999,0.024487029,-0.051001684399999997,0.22765299689999999,-0.076346203299999998,0.083619189900000002,0.017814735799999998,0.024153171099999999,-0.041377066999999997,0.23206818509999999,-0.046726479199999997
Orange,Orange_1_51,"0.0,0.1,1.0,1.4,0.0,0.1,1.1,1.4,0.0,0.0,0.0,0.0,1.6,0.0,0.7,1.1","0.0086928154284,0.0169375510579,0.0556418533901","10.0,1000.0,0.0,0.0,5000.0",0.048860536000000003,0.0173879007,0.055232136199999997,0.0,2.77555756156e-17,1.7347234759800001e-17,0.081691059600000004,0.0536688362,0.026046559300000001,-0.16044580150000001,0.2565345571,0.15646848320000001,0.081702421100000006,0.053661853199999998,0.026045431099999999,-0.1604091027,0.25662675460000001,0.15641257510000001
Orange,Orange_2_52,"0.0,0.1,1.0,1.4,0.0,0.1,1.1,1.4,0.0,0.0,0.0,0.0,1.6,0.0,0.7,1.1","0.0086928154284,0.0169375510579,0.0556418533901","10.0,1000.0,0.0,0.0,5000.0",0.048860536000000003,0.0173879007,0.055232136199999997,0.0,2.77555756156e-17,1.7347234759800001e-17,0.074619196999999998,-0.016881126900000001,0.029851990299999999,0.2790655245,0.1643441259,-0.015935575099999998,0.075122145099999996,-0.0156933195,0.0298613327,0.29214339309999998,0.16059518980000001,0.0134814493
Orange,Orange_3_53,"0.0,0.1,1.0,1.4,0.0,0.1,1.1,1.4,0.0,0.0,0.0,0.0,1.6,0.0,0.7,1.1","0.0086928154284,0.0169375510579,0.0556418533901","10.0,1000.0,0.0,0.0,5000.0",0.048860536000000003,0.0173879007,0.055232136199999997,0.0,2.77555756156e-17,1.7347234759800001e-17,0.064280364199999995,0.033655723700000001,0.0260115465,-0.17816974350000001,0.031521354600000002,-0.015288504099999999,0.064280363600000001,0.03365572,0.026011532399999999,-0.17816973310000001,0.0315213388,-0.0152884886
Orange,Orange_4_54,"0.0,0.1,1.0,1.4,0.0,0.1,1.1,1.4,0.0,0.0,0.0,0.0,1.6,0.0,0.7,1.1","0.0086928154284,0.0169375510579,0.0556418533901","10.0,1000.0,0.0,0.0,5000.0",0.048860536000000003,0.0173879007,0.055232136199999997,0.0,2.77555756156e-17,1.7347234759800001e-17,0.074169446700000002,0.065591823199999996,0.010365777099999999,-0.27805806659999999,0.23187345209999999,0.19876802490000001,0.076209039500000006,0.063981924699999998,0.010427504799999999,-0.24686464450000001,0.25144227590000001,0.20771729010000001
Orange,Orange_5_55,"0.2,0.8,0.7,1.6,0.2,0.8,0.7,1.6,0.0,0.0,0.0,0.0,1.4,0.0,0.0,1.6","0.0086928154284,0.0169375510579,0.0556418533901","10.0,1000.0,0.0,0.0,5000.0",0.080228162500000005,0.038629119000000003,0.024830996599999999,-1.38777878078e-17,-3.4694469519500002e-17,-1.3010426069800001e-17,0.043225988999999999,0.026398379,0.0542437999,0.0400246727,-0.26087461109999999,-0.1045144184,0.043228690700000003,0.0263994886,0.054242821099999998,0.040017292199999999,-0.2608599734,-0.1045084739
Orange,Orange_6_56,"0.2,0.8,0.7,1.6,0.2,0.8,0.7,1.6,0.0,0.0,0.0,0.0,1.4,0.0,0.0,1.6","0.0086928154284,0.0169375510579,0.0556418533901","10.0,1000.0,0.0,0.0,5000.0",0.080228162500000005,0.038629119000000003,0.024830996599999999,-1.38777878078e-17,-3.4694469519500002e-17,-1.3010426069800001e-17,0.067342613100000004,0.058845534099999999,0.048868259099999999,0.099980792700000001,0.0230637195,0.36296220099999998,0.067342610299999994,0.058845534499999998,0.048868268200000002,0.099980764,0.0230637442,0.36296219899999999
Orange,Orange_7_57,"0.2,0.8,0.7,1.6,0.2,0.8,0.7,1.6,0.0,0.0,0.0,0.0,1.4,0.0,0.0,1.6","0.0086928154284,0.0169375510579,0.0556418533901","10.0,1000.0,0.0,0.0,5000.0",0.080228162500000005,0.038629119000000003,0.024830996599999999,-1.38777878078e-17,-3.4694469519500002e-17,-1.3010426069800001e-17,0.085272464899999997,-0.0045397014999999999,0.033368707999999997,0.2372795301,0.087003363200000003,-0.1611331909,0.085285635299999996,-0.0045294315999999998,0.033366410899999997,0.23722156699999999,0.087106355100000005,-0.1610660605
Orange,Orange_8_58,"0.2,0.8,0.7,1.6,0.2,0.8,0.7,1.6,0.0,0.0,0.0,0.0,1.4,0.0,0.0,1.6","0.0086928154284,0.0169375510579,0.0556418533901","10.0,1000.0,0.0,0.0,5000.0",0.080228162500000005,0.038629119000000003,0.024830996599999999,-1.38777878078e-17,-3.4694469519500002e-17,-1.3010426069800001e-17,0.039256596599999999,0.0545147988,0.050664201499999999,0.0376071631,-0.22585148120000001,0.3458950496,0.0392586922,0.054483343300000001,0.0506593688,0.037921354599999998,-0.22594200589999999,0.34594943350000001
Orange,Orange_9_59,"0.2,0.8,0.7,1.6,0.2,0.8,0.7,1.6,0.0,0.0,0.0,0.0,1.4,0.0,0.0,1.6","0.0086928154284,0.0169375510579,0.0556418533901","10.0,1000.0,0.0,0.0,5000.0",0.080228162500000005,0.038629119000000003,0.024830996599999999,-1.38777878078e-17,-3.4694469519500002e-17,-1.3010426069800001e-17,0.077598466399999996,0.0077523428999999996,0.036687036200000002,0.071691813399999998,-0.0134876071,-0.2465851949,0.079231845800000006,0.0083794561,0.036184499600000003,0.086778950499999993,0.0031523149000000001,-0.2192345356
Plane,Plane_0_60,"0.2,0.1,1.4,1.4,0.2,0.2,1.4,1.4,0.0,0.0,0.0,0.0,1.2,0.1,0.6,1.2","-0.000300069580984,0.0554609256662,0.0263358170797","10.0,1000.0,0.0,0.0,5000.0",0.089196300800000003,0.0098302336000000001,0.019680371700000001,1.38777878078e-17,-5.5511151231299994e-17,-2.77555756156e-17,0.084191480499999999,-0.0052387055000000004,0.00077317200000000003,-0.13416391950000001,-0.12713149639999999,-0.26434795630000002,0.084329024799999999,-0.0049785224000000001,0.0015494739000000001,-0.14052239920000001,-0.12548922409999999,-0.26666088329999998
Plane,Plane_1_61,"0.2,0.1,1.4,1.4,0.2,0.2,1.4,1.4,0.0,0.0,0.0,0.0,1.2,0.1,0.6,1.2","-0.000300069580984,0.0554609256662,0.0263358170797","10.0,1000.0,0.0,0.0,5000.0",0.089196300800000003,0.0098302336000000001,0.019680371700000001,1.38777878078e-17,-5.5511151231299994e-17,-2.77555756156e-17,0.072440150499999995,-0.015695221700000001,0.0072320183000000003,-0.025183219699999999,-0.2317675692,-0.32809475230000001,0.072440150999999994,-0.0156952216,0.0072320183000000003,-0.025183222500000001,-0.2317675635,-0.3280947514
Plane,Plane_2_62,"0.2,0.1,1.4,1.4,0.2,0.2,1.4,1.4,0.0,0.0,0.0,0.0,1.2,0.1,0.6,1.2","-0.000300069580984,0.0554609256662,0.0263358170797","10.0,1000.0,0.0,0.0,5000.0",0.089196300800000003,0.0098302336000000001,0.019680371700000001,1.38777878078e-17,-5.5511151231299994e-17,-2.77555756156e-17,0.092275317900000001,0.0234082213,-0.0080897265999999995,-0.10052716220000001,-0.052863202800000002,0.029834539600000001,0.093140826600000004,0.025296206299999999,-0.0048457016000000002,-0.13164494060000001,-0.040446104900000002,0.023898770999999999
Plane,Plane_3_63,"0.2,0.1,1.4,1.4,0.2,0.2,1.4,1.4,0.0,0.0,0.0,0.0,1.2,0.1,0.6,1.2","-0.000300069580984,0.0554609256662,0.0263358170797","10.0,1000.0,0.0,0.0,5000.0",0.089196300800000003,0.0098302336000000001,0.019680371700000001,1.38777878078e-17,-5.5511151231299994e-17,-2.77555756156e-17,0.095897203299999997,-0.014454211,-0.011246694,0.19072843,0.060765544599999999,-0.13158959919999999,0.095899593000000005,-0.014449216900000001,-0.011244823100000001,0.1906812366,0.060782415100000001,-0.13156640089999999
Plane,Plane_4_64,"0.2,0.1,1.4,1.4,0.2,0.2,1.4,1.4,0.0,0.0,0.0,0.0,1.2,0.1,0.6,1.2","-0.000300069580984,0.0554609256662,0.0263358170797","10.0,1000.0,0.0,0.0,5000.0",0.089196300800000003,0.0098302336000000001,0.019680371700000001,1.38777878078e-17,-5.5511151231299994e-17,-2.77555756156e-17,0.086631836200000006,0.0181856237,-0.0108284049,0.0063314545999999996,-0.14318912289999999,0.045942385600000003,0.089428675400000004,0.02064063,-0.0043355603000000001,-0.0248491778,-0.098527402200000003,0.046541355499999999
Plane,Plane_5_65,"0.2,0.9,0.9,1.4,0.2,0.9,0.9,1.4,0.0,0.0,0.0,0.0,1.4,0.0,0.0,1.6","-0.000300069580984,0.0554609256662,0.0263358170797","10.0,1000.0,0.0,0.0,5000.0",0.1021768461,0.002872084,-0.00092664060000000005,-1.38777878078e-17,-3.4694469519500002e-17,-1.3010426069800001e-17,0.071204029399999993,0.0063083076999999998,0.031786657400000001,-0.014154511200000001,-0.28674783720000002,0.044655552899999999,0.071204685500000003,0.0063086612000000002,0.031786634500000001,-0.0141565831,-0.28674007099999999,0.044656551799999999
Plane,Plane_6_66,"0.2,0.9,0.9,1.4,0.2,0.9,0.9,1.4,0.0,0.0,0.0,0.0,1.4,0.0,0.0,1.6","-0.000300069580984,0.0554609256662,0.0263358170797","10.0,1000.0,0.0,0.0,5000.0",0.1021768461,0.002872084,-0.00092664060000000005,-1.38777878078e-17,-3.4694469519500002e-17,-1.3010426069800001e-17,0.063762418599999995,0.0084972055000000005,0.035930368900000002,-0.14254609309999999,-0.35035275020000001,-0.0374364118,0.065343625500000002,0.0070487053000000003,0.034972112200000002,-0.11525336529999999,-0.33690478870000001,-0.031070939299999999
Plane,Plane_7_67,"0.2,0.9,0.9,1.4,0.2,0.9,0.9,1.4,0.0,0.0,0.0,0.0,1.4,0.0,0.0,1.6","-0.000300069580984,0.0554609256662,0.0263358170797","10.0,1000.0,0.0,0.0,5000.0",0.1021768461,0.002872084,-0.00092664060000000005,-1.38777878078e-17,-3.4694469519500002e-17,-1.3010426069800001e-17,0.075628143999999994,0.030895797999999999,0.029260294999999999,0.042633730799999998,-0.24225235959999999,0.35351818289999998,0.075630910400000001,0.030888527499999999,0.029258191100000001,0.042673153200000001,-0.24224894329999999,0.35346547150000002
Plane,Plane_8_68,"0.2,0.9,0.9,1.4,0.2,0.9,0.9,1.4,0.0,0.0,0.0,0.0,1.4,0.0,0.0,1.6","-0.000300069580984,0.0554609256662,0.0263358170797","10.0,1000.0,0.0,0.0,5000.0",0.1021768461,0.002872084,-0.00092664060000000005,-1.38777878078e-17,-3.4694469519500002e-17,-1.3010426069800001e-17,0.081104446799999994,0.032901105600000001,0.0165955185,0.12436264950000001,-0.2678876161,0.40224572679999998,0.081106532199999998,0.032897662000000001,0.016594160100000001,0.1243891456,-0.2678755498,0.40222081389999997
Plane,Plane_9_69,"0.2,0.9,0.9,1.4,0.2,0.9,0.9,1.4,0.0,0.0,0.0,0.0,1.4,0.0,0.0,1.6","-0.000300069580984,0.0554609256662,0.0263358170797","10.0,1000.0,0.0,0.0,5000.0",0.1021768461,0.002872084,-0.00092664060000000005,-1.38777878078e-17,-3.4694469519500002e-17,-1.3010426069800001e-17,0.052329474500000001,-0.011141768099999999,0.037778947399999999,-0.0280214721,-0.40190006220000002,-0.18481044890000001,0.054354937899999997,-0.0101767965,0.037153835099999998,-0.019285363100000001,-0.3899393297,-0.16040860060000001
Screwdriver,Screwdriver_0_70,"0.2,0.2,1.3,1.52,0.2,0.3,1.4,1.4,0.0,0.0,0.0,0.0,1.48,0.0,0.9,0.79","0.00183709371556,0.00688775492615,0.0229877279528","10.0,1000.0,0.0,0.0,5000.0",0.061232969800000002,0.0368102659,0.031985551500000001,1.38777878078e-17,-8.3266726846900003e-17,1.56125112838e-17,0.071607678899999999,0.025116168099999999,-0.0075335424,0.076045143400000001,-0.15406658070000001,-0.084744783099999998,0.071805889499999997,0.0251976688,-0.0069715386000000004,0.075526119200000005,-0.15040523089999999,-0.084333880900000005
Screwdriver,Screwdriver_1_71,"0.2,0.2,1.3,1.52,0.2,0.3,1.4,1.4,0.0,0.0,0.0,0.0,1.48,0.0,0.9,0.79","0.00183709371556,0.00688775492615,0.0229877279528","10.0,1000.0,0.0,0.0,5000.0",0.061232969800000002,0.0368102659,0.031985551500000001,1.38777878078e-17,-8.3266726846900003e-17,1.56125112838e-17,0.1027315115,0.013449813200000001,-0.0042952225000000002,0.3259832875,0.33525544309999999,0.063519727200000001,0.1027315063,0.013449806,-0.0042952099999999998,0.32598329710000001,0.3352553868,0.063519694700000004
Screwdriver,Screwdriver_2_72,"0.2,0.2,1.3,1.52,0.2,0.3,1.4,1.4,0.0,0.0,0.0,0.0,1.48,0.0,0.9,0.79","0.00183709371556,0.00688775492615,0.0229877279528","10.0,1000.0,0.0,0.0,5000.0",0.061232969800000002,0.0368102659,0.031985551500000001,1.38777878078e-17,-8.3266726846900003e-17,1.56125112838e-17,0.072184493200000005,0.074698273900000001,-0.017384273299999999,0.028912401300000001,0.096004844000000006,0.39237461159999998,0.0721598881,0.074612217699999997,-0.016675638999999999,0.032957774500000002,0.093972394099999995,0.393908973
Screwdriver,Screwdriver_3_73,"0.2,0.2,1.3,1.52,0.2,0.3,1.4,1.4,0.0,0.0,0.0,0.0,1.48,0.0,0.9,0.79","0.00183709371556,0.00688775492615,0.0229877279528","10.0,1000.0,0.0,0.0,5000.0",0.061232969800000002,0.0368102659,0.031985551500000001,1.38777878078e-17,-8.3266726846900003e-17,1.56125112838e-17,0.073076498500000003,0.031674677599999999,0.0013960651,-0.110726098,-0.14199456420000001,-0.14533105939999999,0.073295378699999997,0.033568039199999997,0.0010832133000000001,-0.1016066466,-0.13298482049999999,-0.1181044468
Screwdriver,Screwdriver_4_74,"0.2,0.2,1.3,1.52,0.2,0.3,1.4,1.4,0.0,0.0,0.0,0.0,1.48,0.0,0.9,0.79","0.00183709371556,0.00688775492615,0.0229877279528","10.0,1000.0,0.0,0.0,5000.0",0.061232969800000002,0.0368102659,0.031985551500000001,1.38777878078e-17,-8.3266726846900003e-17,1.56125112838e-17,0.084845498800000002,0.031922926900000002,-0.0050018563000000004,0.047952213399999999,0.059857648300000003,-0.031546740599999998,0.084845498899999997,0.031922928199999999,-0.005001854,0.0479522057,0.059857652999999997,-0.031546734
Screwdriver,Screwdriver_5_75,"0.1,1.0,0.7,1.6,0.0,1.0,0.8,1.6,0.0,0.0,0.0,0.0,1.5,0.0,0.0,1.6","0.00183709371556,0.00688775492615,0.0229877279528","10.0,1000.0,0.0,0.0,5000.0",0.086563158200000004,0.037391862300000002,-0.0075415758999999999,-5.5511151231299994e-17,-3.4694469519500002e-17,-6.5052130349099998e-18,0.049451259400000003,0.0296612037,0.035483315699999997,0.0310498952,-0.18614691650000001,-0.046059466799999997,0.0508124353,0.029657325299999999,0.034192962299999997,0.033833074400000003,-0.19442990020000001,-0.045716385499999998
Screwdriver,Screwdriver_6_76,"0.1,1.0,0.7,1.6,0.0,1.0,0.8,1.6,0.0,0.0,0.0,0.0,1.5,0.0,0.0,1.6","0.00183709371556,0.00688775492615,0.0229877279528","10.0,1000.0,0.0,0.0,5000.0",0.086563158200000004,0.037391862300000002,-0.0075415758999999999,-5.5511151231299994e-17,-3.4694469519500002e-17,-6.5052130349099998e-18,0.052565281399999997,0.034878833300000002,0.027309209800000001,0.037337365800000001,-0.26291289179999999,0.022380408599999999,0.0525659557,0.034878878100000003,0.0273081786,0.037339335199999997,-0.26291807540000001,0.022381666000000001
Screwdriver,Screwdriver_7_77,"0.1,1.0,0.7,1.6,0.0,1.0,0.8,1.6,0.0,0.0,0.0,0.0,1.5,0.0,0.0,1.6","0.00183709371556,0.00688775492615,0.0229877279528","10.0,1000.0,0.0,0.0,5000.0",0.086563158200000004,0.037391862300000002,-0.0075415758999999999,-5.5511151231299994e-17,-3.4694469519500002e-17,-6.5052130349099998e-18,0.071615311000000001,0.043404763300000003,0.019639911999999999,-0.058979482600000001,-0.0927501669,0.0084056445,0.071616122599999998,0.043404603899999998,0.019640342500000001,-0.058979644599999999,-0.092735651799999999,0.0084018437999999994
Screwdriver,Screwdriver_8_78,"0.1,1.0,0.7,1.6,0.0,1.0,0.8,1.6,0.0,0.0,0.0,0.0,1.5,0.0,0.0,1.6","0.00183709371556,0.00688775492615,0.0229877279528","10.0,1000.0,0.0,0.0,5000.0",0.086563158200000004,0.037391862300000002,-0.0075415758999999999,-5.5511151231299994e-17,-3.4694469519500002e-17,-6.5052130349099998e-18,0.065756289600000004,-0.0022151467000000001,0.022151836500000001,0.29646261299999999,-0.1170369196,-0.17186019990000001,0.065783634199999996,-0.0011272766,0.0222176784,0.30817269660000002,-0.1174027378,-0.14676176599999999
Screwdriver,Screwdriver_9_79,"0.1,1.0,0.7,1.6,0.0,1.0,0.8,1.6,0.0,0.0,0.0,0.0,1.5,0.0,0.0,1.6","0.00183709371556,0.00688775492615,0.0229877279528","10.0,1000.0,0.0,0.0,5000.0",0.086563158200000004,0.037391862300000002,-0.0075415758999999999,-5.5511151231299994e-17,-3.4694469519500002e-17,-6.5052130349099998e-18,0.0372441258,0.044420245999999997,0.031133830899999999,0.063664882500000006,-0.31446428710000002,0.2506223803,0.0389290391,0.044735388700000003,0.029228392299999999,0.071857569299999993,-0.32670031589999998,0.25312719830000002
Spatula,Spatula_0_80,"0.2,0.3,1.3,1.4,0.2,0.3,1.3,1.4,0.0,0.0,0.0,0.0,1.6,0.1,0.9,0.79","0.0198080034269,0.114964821658,0.0188656129651","10.0,1000.0,0.0,0.0,5000.0",0.059000870599999998,-0.092565297500000004,0.024873152700000001,1.0408340855900001e-17,1.1102230246299999e-16,-3.6429192995500001e-17,0.079572323400000006,-0.096850983599999996,-0.0191738168,0.0415879018,0.1143903127,-0.042014910500000002,0.082910989700000007,-0.094595722100000001,-0.020306385,0.053347140500000001,0.1141957037,-0.011626077300000001
Spatula,Spatula_1_81,"0.2,0.3,1.3,1.4,0.2,0.3,1.3,1.4,0.0,0.0,0.0,0.0,1.6,0.1,0.9,0.79","0.0198080034269,0.114964821658,0.0188656129651","10.0,1000.0,0.0,0.0,5000.0",0.059000870599999998,-0.092565297500000004,0.024873152700000001,1.0408340855900001e-17,1.1102230246299999e-16,-3.6429192995500001e-17,0.1021973815,-0.062305801600000002,-0.029325312199999998,0.0204815746,-0.0081936982999999998,0.2611649231,0.10376096,-0.061536249799999998,-0.023450302700000002,0.011542347499999999,0.0096072711999999998,0.26126864220000001
Spatula,Spatula_2_82,"0.2,0.3,1.3,1.4,0.2,0.3,1.3,1.4,0.0,0.0,0.0,0.0,1.6,0.1,0.9,0.79","0.0198080034269,0.114964821658,0.0188656129651","10.0,1000.0,0.0,0.0,5000.0",0.059000870599999998,-0.092565297500000004,0.024873152700000001,1.0408340855900001e-17,1.1102230246299999e-16,-3.6429192995500001e-17,0.070078818200000004,-0.1052126154,-0.052748172500000003,0.29828414460000002,-0.030419193600000002,-0.061510341500000003,0.083509757800000001,-0.1091944254,-0.057905787700000003,0.49794412319999998,0.063913535300000004,0.073857956000000002
Spatula,Spatula_3_83,"0.2,0.3,1.3,1.4,0.2,0.3,1.3,1.4,0.0,0.0,0.0,0.0,1.6,0.1,0.9,0.79","0.0198080034269,0.114964821658,0.0188656129651","10.0,1000.0,0.0,0.0,5000.0",0.059000870599999998,-0.092565297500000004,0.024873152700000001,1.0408340855900001e-17,1.1102230246299999e-16,-3.6429192995500001e-17,0.077949341000000005,-0.078139799499999996,-0.0021352375000000001,-0.0068127939999999996,-0.19175341100000001,0.12631209500000001,0.077949365100000001,-0.078139740200000002,-0.0021351985999999998,-0.0068132143999999999,-0.19175350220000001,0.1263124967
Spatula,Spatula_4_84,"0.2,0.3,1.3,1.4,0.2,0.3,1.3,1.4,0.0,0.0,0.0,0.0,1.6,0.1,0.9,0.79","0.0198080034269,0.114964821658,0.0188656129651","10.0,1000.0,0.0,0.0,5000.0",0.059000870599999998,-0.092565297500000004,0.024873152700000001,1.0408340855900001e-17,1.1102230246299999e-16,-3.6429192995500001e-17,0.0809813063,-0.078918534400000004,0.0059528860999999997,-0.10551479530000001,0.0040112337000000001,0.033301358099999998,0.080981307899999994,-0.078918532,0.0059529372999999998,-0.1055147951,0.0040114406,0.033301330499999997
Spatula,Spatula_5_85,"0.1,1.1,0.8,1.3,0.0,1.1,0.8,1.3,0.0,0.0,0.0,0.0,1.6,0.0,0.0,1.6","0.0198080034269,0.114964821658,0.0188656129651","10.0,1000.0,0.0,0.0,5000.0",0.082824430000000004,-0.082585178400000001,-0.0018799361000000001,-1.38777878078e-17,-4.8572257327400001e-17,-4.3801767768400001e-17,0.055372524200000002,-0.092599360399999997,0.023599445600000001,0.080113651100000002,-0.12602770490000001,-0.046392667700000001,0.058703371400000003,-0.091583989199999993,0.0222007909,0.0921615935,-0.1234591109,-0.018867752799999998
Spatula,Spatula_6_86,"0.1,1.1,0.8,1.3,0.0,1.1,0.8,1.3,0.0,0.0,0.0,0.0,1.6,0.0,0.0,1.6","0.0198080034269,0.114964821658,0.0188656129651","10.0,1000.0,0.0,0.0,5000.0",0.082824430000000004,-0.082585178400000001,-0.0018799361000000001,-1.38777878078e-17,-4.8572257327400001e-17,-4.3801767768400001e-17,0.095229108800000004,-0.0473110734,0.014963653699999999,0.051179846399999999,-0.23697271410000001,0.40810502399999998,0.095228878899999994,-0.047311428000000003,0.014964939300000001,0.0511800356,-0.23696146330000001,0.408101769
Spatula,Spatula_7_87,"0.1,1.1,0.8,1.3,0.0,1.1,0.8,1.3,0.0,0.0,0.0,0.0,1.6,0.0,0.0,1.6","0.0198080034269,0.114964821658,0.0188656129651","10.0,1000.0,0.0,0.0,5000.0",0.082824430000000004,-0.082585178400000001,-0.0018799361000000001,-1.38777878078e-17,-4.8572257327400001e-17,-4.3801767768400001e-17,0.050856354300000003,-0.10016123590000001,0.020771026800000002,0.15258074669999999,-0.097536402100000003,-0.054483553099999998,0.054164420800000002,-0.0992561104,0.019333929900000001,0.16505625930000001,-0.096541800900000002,-0.026081716000000001
Spatula,Spatula_8_88,"0.1,1.1,0.8,1.3,0.0,1.1,0.8,1.3,0.0,0.0,0.0,0.0,1.6,0.0,0.0,1.6","0.0198080034269,0.114964821658,0.0188656129651","10.0,1000.0,0.0,0.0,5000.0",0.082824430000000004,-0.082585178400000001,-0.0018799361000000001,-1.38777878078e-17,-4.8572257327400001e-17,-4.3801767768400001e-17,0.056966982899999997,-0.11698708989999999,0.00062790130000000004,0.33170350510000002,0.056027513299999998,-0.0388951794,0.060679318400000001,-0.115610068,-0.0019541703,0.34810538629999999,0.045752370299999998,-0.010182304
Spatula,Spatula_9_89,"0.1,1.1,0.8,1.3,0.0,1.1,0.8,1.3,0.0,0.0,0.0,0.0,1.6,0.0,0.0,1.6","0.0198080034269,0.114964821658,0.0188656129651","10.0,1000.0,0.0,0.0,5000.0",0.082824430000000004,-0.082585178400000001,-0.0018799361000000001,-1.38777878078e-17,-4.8572257327400001e-17,-4.3801767768400001e-17,0.065366539400000007,-0.079274624500000002,0.0027235314000000001,0.12869648989999999,-0.46601239729999999,0.1542515066,0.065366708900000001,-0.079274578999999998,0.0027235168999999999,0.1286962639,-0.46601025979999999,0.15425160809999999
Tuna,Tuna_0_90,"0.2,0.5,1.0,0.1,0.2,0.5,1.0,0.1,0.0,0.0,0.0,0.0,1.4,0.0,0.6,1.1","0.0182722441667,-0.000181857457801,0.0600189359379","10.0,1000.0,0.0,0.0,5000.0",0.047146028100000001,0.048303940300000001,0.054158427199999998,-1.38777878078e-17,0.0,9.3675067702700005e-17,0.093876882600000003,0.034611177799999997,0.016231277700000001,-0.1437777626,0.31539813259999999,-0.29695717939999999,0.0964914402,0.036672537499999998,0.0181276228,-0.1467612774,0.3380707281,-0.28161233740000002
Tuna,Tuna_1_91,"0.2,0.5,1.0,0.1,0.2,0.5,1.0,0.1,0.0,0.0,0.0,0.0,1.4,0.0,0.6,1.1","0.0182722441667,-0.000181857457801,0.0600189359379","10.0,1000.0,0.0,0.0,5000.0",0.047146028100000001,0.048303940300000001,0.054158427199999998,-1.38777878078e-17,0.0,9.3675067702700005e-17,0.055141731100000001,0.064533263199999996,0.019124369400000001,-0.062716258900000002,0.047383706900000003,0.13087408319999999,0.055141728899999999,0.064533264100000001,0.0191243722,-0.062716264699999996,0.047383684400000001,0.130874088
Tuna,Tuna_2_92,"0.2,0.5,1.0,0.1,0.2,0.5,1.0,0.1,0.0,0.0,0.0,0.0,1.4,0.0,0.6,1.1","0.0182722441667,-0.000181857457801,0.0600189359379","10.0,1000.0,0.0,0.0,5000.0",0.047146028100000001,0.048303940300000001,0.054158427199999998,-1.38777878078e-17,0.0,9.3675067702700005e-17,0.063370119099999997,0.058536500900000003,0.036044377099999997,-0.2459002512,-0.016317278500000001,-0.2524465487,0.063845131200000002,0.056619155400000003,0.036773537500000002,-0.2182225975,0.00089488709999999995,-0.2356362226
Tuna,Tuna_3_93,"0.2,0.5,1.0,0.1,0.2,0.5,1.0,0.1,0.0,0.0,0.0,0.0,1.4,0.0,0.6,1.1","0.0182722441667,-0.000181857457801,0.0600189359379","10.0,1000.0,0.0,0.0,5000.0",0.047146028100000001,0.048303940300000001,0.054158427199999998,-1.38777878078e-17,0.0,9.3675067702700005e-17,0.10064086580000001,0.0185476241,0.026124452499999999,0.0155959615,0.40688566500000001,-0.2474558841,0.1008905534,0.0205452764,0.027090563500000001,0.025747945299999998,0.4103846827,-0.2178312875
Tuna,Tuna_4_94,"0.2,0.5,1.0,0.1,0.2,0.5,1.0,0.1,0.0,0.0,0.0,0.0,1.4,0.0,0.6,1.1","0.0182722441667,-0.000181857457801,0.0600189359379","10.0,1000.0,0.0,0.0,5000.0",0.047146028100000001,0.048303940300000001,0.054158427199999998,-1.38777878078e-17,0.0,9.3675067702700005e-17,0.063186412100000006,0.0197107277,0.044328388199999999,0.081597481400000005,0.070182612500000005,-0.2475418365,0.063267888899999999,0.0204467498,0.044433150099999999,0.094381490299999996,0.074728483100000007,-0.218008539
Tuna,Tuna_5_95,"0.2,0.6,0.6,1.6,0.2,0.6,0.7,1.6,0.0,0.0,0.0,0.0,1.4,0.0,0.0,1.6","0.0182722441667,-0.000181857457801,0.0600189359379","10.0,1000.0,0.0,0.0,5000.0",0.065539064699999997,0.052069659900000002,0.027584307299999999,-1.38777878078e-17,-3.4694469519500002e-17,-1.3010426069800001e-17,0.040961208700000001,0.034244700599999997,0.049646999999999997,0.0471446612,-0.21263347399999999,-0.2096676432,0.040999078600000002,0.034292179800000003,0.049662971700000003,0.048876147799999999,-0.2113114401,-0.20526668140000001
Tuna,Tuna_6_96,"0.2,0.6,0.6,1.6,0.2,0.6,0.7,1.6,0.0,0.0,0.0,0.0,1.4,0.0,0.0,1.6","0.0182722441667,-0.000181857457801,0.0600189359379","10.0,1000.0,0.0,0.0,5000.0",0.065539064699999997,0.052069659900000002,0.027584307299999999,-1.38777878078e-17,-3.4694469519500002e-17,-1.3010426069800001e-17,0.026146096600000002,0.049487603999999998,0.0468739907,0.1154482095,-0.25641251040000002,0.23168283479999999,0.026190541599999999,0.049274898499999997,0.046199784700000003,0.1183584437,-0.2599858793,0.23154624400000001
Tuna,Tuna_7_97,"0.2,0.6,0.6,1.6,0.2,0.6,0.7,1.6,0.0,0.0,0.0,0.0,1.4,0.0,0.0,1.6","0.0182722441667,-0.000181857457801,0.0600189359379","10.0,1000.0,0.0,0.0,5000.0",0.065539064699999997,0.052069659900000002,0.027584307299999999,-1.38777878078e-17,-3.4694469519500002e-17,-1.3010426069800001e-17,0.0207649385,0.022072141199999999,0.034948068499999999,0.20178662210000001,-0.42942684759999999,-0.26319227589999999,0.020858977599999998,0.022153031600000001,0.035026795600000001,0.21096671880000001,-0.42498138499999999,-0.2392177231
Tuna,Tuna_8_98,"0.2,0.6,0.6,1.6,0.2,0.6,0.7,1.6,0.0,0.0,0.0,0.0,1.4,0.0,0.0,1.6","0.0182722441667,-0.000181857457801,0.0600189359379","10.0,1000.0,0.0,0.0,5000.0",0.065539064699999997,0.052069659900000002,0.027584307299999999,-1.38777878078e-17,-3.4694469519500002e-17,-1.3010426069800001e-17,0.028793945500000001,0.039924063699999998,0.0129442897,0.17702492440000001,-0.367788269,0.1026112003,0.030175544499999998,0.041609471799999999,0.020984706999999998,0.16095197350000001,-0.3428707272,0.10823635769999999
Tuna,Tuna_9_99,"0.2,0.6,0.6,1.6,0.2,0.6,0.7,1.6,0.0,0.0,0.0,0.0,1.4,0.0,0.0,1.6","0.0182722441667,-0.000181857457801,0.0600189359379","10.0,1000.0,0.0,0.0,5000.0",0.065539064699999997,0.052069659900000002,0.027584307299999999,-1.38777878078e-17,-3.4694469519500002e-17,-1.3010426069800001e-17,0.081414541199999996,-0.025401520300000001,0.035260052299999997,0.46544231530000002,0.2251670425,-0.17813055189999999,0.081377950700000007,-0.024648690399999999,0.035583292400000001,0.48037061920000002,0.2196033651,-0.1520528692
